02_DE
…
  res <- as_tibble(res) %>% 
    dplyr::select(ensembl_gene_id, log2FoldChange, pvalue, padj, gene_biotype, external_gene_name)
  
  return(res)
  }

wald_res_all <- lapply(res_names, get_res)
names(wald_res_all) <- res_names

head(wald_res_all)

$Intercept
# A tibble: 11,157 × 6
   ensembl_gene_id log2FoldChange    pvalue      padj gene_biotype  
   <chr>                    <dbl>     <dbl>     <dbl> <chr>         
 1 FBgn0000003               8.07 2.80e-134 3.56e-134 ncRNA         
 2 FBgn0000008              11.4  0         0         protein_coding
 3 FBgn0000014              12.6  0         0         protein_coding
 4 FBgn0000015              11.9  0         0         protein_coding
 5 FBgn0000017              12.7  0         0         protein_coding
 6 FBgn0000018               7.91 0         0         protein_coding
 7 FBgn0000022               8.17 0         0         protein_coding
 8 FBgn0000024               9.42 0         0         protein_coding
 9 FBgn0000028               7.81 0         0         protein_coding
10 FBgn0000032              10.3  0         0         protein_coding
# ℹ 11,147 more rows
# ℹ 1 more variable: external_gene_name <chr>

$condition_O1_KO_vs_Ctrl
# A tibble: 11,157 × 6
   ensembl_gene_id log2FoldChange    pvalue     padj gene_biotype  
   <chr>                    <dbl>     <dbl>    <dbl> <chr>         
 1 FBgn0000003             -0.323 0.486     0.604    ncRNA         
 2 FBgn0000008             -0.464 0.000286  0.00244  protein_coding
 3 FBgn0000014             -0.549 0.00234   0.0112   protein_coding
 4 FBgn0000015             -0.340 0.0353    0.0811   protein_coding
 5 FBgn0000017              0.153 0.281     0.399    protein_coding
 6 FBgn0000018              0.322 0.0850    0.158    protein_coding
 7 FBgn0000022             -0.124 0.657     0.751    protein_coding
 8 FBgn0000024             -1.17  0.0000571 0.000744 protein_coding
 9 FBgn0000028             -0.185 0.514     0.629    protein_coding
10 FBgn0000032              0.857 0.000364  0.00293  protein_coding
# ℹ 11,147 more rows
# ℹ 1 more variable: external_gene_name <chr>

$condition_O1_OE_vs_Ctrl
# A tibble: 11,157 × 6
   ensembl_gene_id log2FoldChange  pvalue   padj gene_biotype external_gene_name
   <chr>                    <dbl>   <dbl>  <dbl> <chr>        <chr>             
 1 FBgn0000003             -0.250 0.590   0.724  ncRNA        7SLRNA:CR32864    
 2 FBgn0000008             -0.147 0.249   0.428  protein_cod… a                 
 3 FBgn0000014             -0.225 0.211   0.391  protein_cod… abd-A             
 4 FBgn0000015             -0.246 0.127   0.295  protein_cod… Abd-B             
 5 FBgn0000017              0.184 0.195   0.373  protein_cod… Abl               
 6 FBgn0000018              0.208 0.268   0.447  protein_cod… abo               
 7 FBgn0000022              0.216 0.435   0.602  protein_cod… ac                
 8 FBgn0000024             -0.532 0.0653  0.207  protein_cod… Ace               
 9 FBgn0000028             -0.441 0.122   0.288  protein_cod… acj6              
10 FBgn0000032              0.665 0.00569 0.0697 protein_cod… Acph-1            
# ℹ 11,147 more rows

$condition_O1O2_KO_vs_Ctrl
# A tibble: 11,157 × 6
   ensembl_gene_id log2FoldChange      pvalue       padj gene_biotype  
   <chr>                    <dbl>       <dbl>      <dbl> <chr>         
 1 FBgn0000003            0.172   0.710       0.789      ncRNA         
 2 FBgn0000008           -0.343   0.00718     0.0228     protein_coding
 3 FBgn0000014           -0.678   0.000168    0.00124    protein_coding
 4 FBgn0000015           -0.477   0.00309     0.0119     protein_coding
 5 FBgn0000017            0.214   0.132       0.219      protein_coding
 6 FBgn0000018            0.00302 0.987       0.992      protein_coding
 7 FBgn0000022           -0.552   0.0499      0.104      protein_coding
 8 FBgn0000024           -1.49    0.000000338 0.00000935 protein_coding
 9 FBgn0000028           -0.310   0.276       0.391      protein_coding
10 FBgn0000032            0.892   0.000206    0.00145    protein_coding
# ℹ 11,147 more rows
# ℹ 1 more variable: external_gene_name <chr>

$condition_O1W4_KO_vs_Ctrl
# A tibble: 11,157 × 6
   ensembl_gene_id log2FoldChange   pvalue     padj gene_biotype  
   <chr>                    <dbl>    <dbl>    <dbl> <chr>         
 1 FBgn0000003              0.509 2.71e- 1 3.49e- 1 ncRNA         
 2 FBgn0000008             -0.890 5.28e-12 1.21e-10 protein_coding
 3 FBgn0000014             -1.11  7.36e-10 9.47e- 9 protein_coding
 4 FBgn0000015             -0.877 6.14e- 8 4.60e- 7 protein_coding
 5 FBgn0000017              0.755 1.05e- 7 7.42e- 7 protein_coding
 6 FBgn0000018              0.237 2.11e- 1 2.82e- 1 protein_coding
 7 FBgn0000022             -0.448 1.12e- 1 1.66e- 1 protein_coding
 8 FBgn0000024             -1.30  8.37e- 6 3.76e- 5 protein_coding
 9 FBgn0000028             -0.814 5.17e- 3 1.15e- 2 protein_coding
10 FBgn0000032              1.77  1.54e-13 5.42e-12 protein_coding
# ℹ 11,147 more rows
# ℹ 1 more variable: external_gene_name <chr>

$condition_O1W4_OE_vs_Ctrl
# A tibble: 11,157 × 6
   ensembl_gene_id log2FoldChange  pvalue   padj gene_biotype external_gene_name
   <chr>                    <dbl>   <dbl>  <dbl> <chr>        <chr>             
 1 FBgn0000003             0.268  0.562   0.774  ncRNA        7SLRNA:CR32864    
 2 FBgn0000008            -0.214  0.0938  0.300  protein_cod… a                 
 3 FBgn0000014            -0.315  0.0805  0.278  protein_cod… abd-A             
 4 FBgn0000015            -0.323  0.0449  0.208  protein_cod… Abd-B             
 5 FBgn0000017            -0.117  0.410   0.661  protein_cod… Abl               
 6 FBgn0000018             0.117  0.534   0.755  protein_cod… abo               
 7 FBgn0000022             0.473  0.0869  0.289  protein_cod… ac                
 8 FBgn0000024            -0.901  0.00185 0.0365 protein_cod… Ace               
 9 FBgn0000028             0.0264 0.925   0.971  protein_cod… acj6              
10 FBgn0000032             0.136  0.573   0.781  protein_cod… Acph-1            
# ℹ 11,147 more rows
…
