…
  res <- as_tibble(res) %>% 
    dplyr::select(ensembl_gene_id, log2FoldChange, pvalue, padj, gene_biotype, external_gene_name)
  
  return(res)
  }

wald_res_all <- lapply(res_names, get_res)
names(wald_res_all) <- res_names

head(wald_res_all)
```

    $Intercept
    # A tibble: 11,145 × 6
       ensembl_gene_id log2FoldChange    pvalue      padj gene_biotype  
       <chr>                    <dbl>     <dbl>     <dbl> <chr>         
     1 FBgn0000003               8.07 2.13e-134 2.71e-134 ncRNA         
     2 FBgn0000008              11.4  0         0         protein_coding
     3 FBgn0000014              12.6  0         0         protein_coding
     4 FBgn0000015              11.9  0         0         protein_coding
     5 FBgn0000017              12.7  0         0         protein_coding
     6 FBgn0000018               7.91 0         0         protein_coding
     7 FBgn0000022               8.17 0         0         protein_coding
     8 FBgn0000024               9.42 0         0         protein_coding
     9 FBgn0000028               7.81 0         0         protein_coding
    10 FBgn0000032              10.3  0         0         protein_coding
    # ℹ 11,135 more rows
    # ℹ 1 more variable: external_gene_name <chr>

    $condition_O1_KO_vs_Ctrl
    # A tibble: 11,145 × 6
       ensembl_gene_id log2FoldChange    pvalue     padj gene_biotype  
       <chr>                    <dbl>     <dbl>    <dbl> <chr>         
     1 FBgn0000003             -0.323 0.486     0.604    ncRNA         
     2 FBgn0000008             -0.464 0.000288  0.00244  protein_coding
     3 FBgn0000014             -0.548 0.00233   0.0112   protein_coding
     4 FBgn0000015             -0.339 0.0353    0.0810   protein_coding
     5 FBgn0000017              0.154 0.280     0.398    protein_coding
     6 FBgn0000018              0.323 0.0848    0.158    protein_coding
     7 FBgn0000022             -0.124 0.658     0.751    protein_coding
     8 FBgn0000024             -1.17  0.0000568 0.000739 protein_coding
     9 FBgn0000028             -0.185 0.515     0.629    protein_coding
    10 FBgn0000032              0.858 0.000360  0.00291  protein_coding
    # ℹ 11,135 more rows
    # ℹ 1 more variable: external_gene_name <chr>

    $condition_O1_OE_vs_Ctrl
    # A tibble: 11,145 × 6
       ensembl_gene_id log2FoldChange  pvalue   padj gene_biotype external_gene_name
       <chr>                    <dbl>   <dbl>  <dbl> <chr>        <chr>             
     1 FBgn0000003             -0.250 0.590   0.724  ncRNA        7SLRNA:CR32864    
     2 FBgn0000008             -0.147 0.250   0.429  protein_cod… a                 
     3 FBgn0000014             -0.225 0.211   0.390  protein_cod… abd-A             
     4 FBgn0000015             -0.245 0.127   0.295  protein_cod… Abd-B             
     5 FBgn0000017              0.184 0.194   0.372  protein_cod… Abl               
     6 FBgn0000018              0.208 0.268   0.446  protein_cod… abo               
     7 FBgn0000022              0.217 0.435   0.601  protein_cod… ac                
     8 FBgn0000024             -0.532 0.0653  0.207  protein_cod… Ace               
     9 FBgn0000028             -0.440 0.123   0.288  protein_cod… acj6              
    10 FBgn0000032              0.666 0.00565 0.0694 protein_cod… Acph-1            
    # ℹ 11,135 more rows

    $condition_O1O2_KO_vs_Ctrl
    # A tibble: 11,145 × 6
       ensembl_gene_id log2FoldChange      pvalue       padj gene_biotype  
       <chr>                    <dbl>       <dbl>      <dbl> <chr>         
     1 FBgn0000003            0.173   0.709       0.788      ncRNA         
     2 FBgn0000008           -0.343   0.00724     0.0229     protein_coding
     3 FBgn0000014           -0.678   0.000167    0.00123    protein_coding
     4 FBgn0000015           -0.477   0.00309     0.0119     protein_coding
     5 FBgn0000017            0.214   0.131       0.219      protein_coding
     6 FBgn0000018            0.00347 0.985       0.991      protein_coding
     7 FBgn0000022           -0.551   0.0500      0.104      protein_coding
     8 FBgn0000024           -1.49    0.000000336 0.00000930 protein_coding
     9 FBgn0000028           -0.309   0.276       0.391      protein_coding
    10 FBgn0000032            0.893   0.000203    0.00143    protein_coding
    # ℹ 11,135 more rows
    # ℹ 1 more variable: external_gene_name <chr>

    $condition_O1W4_KO_vs_Ctrl
    # A tibble: 11,145 × 6
       ensembl_gene_id log2FoldChange   pvalue     padj gene_biotype  
       <chr>                    <dbl>    <dbl>    <dbl> <chr>         
     1 FBgn0000003              0.510 2.70e- 1 3.47e- 1 ncRNA         
     2 FBgn0000008             -0.889 5.53e-12 1.26e-10 protein_coding
     3 FBgn0000014             -1.11  7.27e-10 9.37e- 9 protein_coding
     4 FBgn0000015             -0.876 6.17e- 8 4.62e- 7 protein_coding
     5 FBgn0000017              0.756 1.02e- 7 7.23e- 7 protein_coding
     6 FBgn0000018              0.238 2.09e- 1 2.80e- 1 protein_coding
     7 FBgn0000022             -0.447 1.13e- 1 1.67e- 1 protein_coding
     8 FBgn0000024             -1.30  8.41e- 6 3.76e- 5 protein_coding
     9 FBgn0000028             -0.813 5.22e- 3 1.16e- 2 protein_coding
    10 FBgn0000032              1.77  1.46e-13 5.19e-12 protein_coding
    # ℹ 11,135 more rows
    # ℹ 1 more variable: external_gene_name <chr>

    $condition_O1W4_OE_vs_Ctrl
    # A tibble: 11,145 × 6
       ensembl_gene_id log2FoldChange  pvalue   padj gene_biotype external_gene_name
       <chr>                    <dbl>   <dbl>  <dbl> <chr>        <chr>             
     1 FBgn0000003             0.269  0.561   0.773  ncRNA        7SLRNA:CR32864    
     2 FBgn0000008            -0.213  0.0944  0.301  protein_cod… a                 
     3 FBgn0000014            -0.314  0.0805  0.279  protein_cod… abd-A             
     4 FBgn0000015            -0.323  0.0450  0.209  protein_cod… Abd-B             
     5 FBgn0000017            -0.116  0.413   0.663  protein_cod… Abl               
     6 FBgn0000018             0.117  0.532   0.754  protein_cod… abo               
     7 FBgn0000022             0.473  0.0865  0.288  protein_cod… ac                
     8 FBgn0000024            -0.900  0.00185 0.0364 protein_cod… Ace               
     9 FBgn0000028             0.0268 0.924   0.971  protein_cod… acj6              
    10 FBgn0000032             0.136  0.571   0.779  protein_cod… Acph-1            
    # ℹ 11,135 more rows
…
